[
  "AP__Gender=Fem|Number=Plur|Poss=Yes|PronType=Prs",
  "AP__Gender=Fem|Number=Sing|Poss=Yes|PronType=Prs",
  "AP__Gender=Masc|Number=Plur|Poss=Yes|PronType=Prs",
  "AP__Gender=Masc|Number=Sing|Poss=Yes|PronType=Prs",
  "AP__Gender=Masc|Poss=Yes|PronType=Prs",
  "AP__Number=Sing|Poss=Yes|PronType=Prs",
  "AP__Poss=Yes|PronType=Prs",
  "A__Degree=Abs|Gender=Fem|Number=Plur",
  "A__Degree=Abs|Gender=Fem|Number=Sing",
  "A__Degree=Abs|Gender=Masc|Number=Plur",
  "A__Degree=Abs|Gender=Masc|Number=Sing",
  "A__Degree=Cmp",
  "A__Degree=Cmp|Number=Plur",
  "A__Degree=Cmp|Number=Sing",
  "A__Gender=Fem|Number=Plur",
  "A__Gender=Fem|Number=Sing",
  "A__Gender=Fem|Number=Sing|Poss=Yes|PronType=Prs",
  "A__Gender=Masc",
  "A__Gender=Masc|Number=Plur",
  "A__Gender=Masc|Number=Sing",
  "A__Number=Plur",
  "A__Number=Sing",
  "A___",
  "BN__PronType=Neg",
  "B__Degree=Abs",
  "B__Degree=Abs|Gender=Masc|Number=Sing",
  "B___",
  "CC___",
  "CS___",
  "DD__Gender=Fem|Number=Plur|PronType=Dem",
  "DD__Gender=Fem|Number=Sing|PronType=Dem",
  "DD__Gender=Masc|Number=Plur|PronType=Dem",
  "DD__Gender=Masc|Number=Sing|PronType=Dem",
  "DD__Gender=Masc|PronType=Dem",
  "DD__Number=Plur|PronType=Dem",
  "DD__Number=Sing|PronType=Dem",
  "DE__PronType=Exc",
  "DI__Definite=Def|Gender=Fem|Number=Plur|PronType=Art",
  "DI__Gender=Fem|Number=Plur",
  "DI__Gender=Fem|Number=Plur|PronType=Ind",
  "DI__Gender=Fem|Number=Sing|PronType=Ind",
  "DI__Gender=Masc|Number=Plur",
  "DI__Gender=Masc|Number=Plur|PronType=Ind",
  "DI__Gender=Masc|Number=Sing|PronType=Ind",
  "DI__Number=Sing|PronType=Art",
  "DI__Number=Sing|PronType=Ind",
  "DI__PronType=Ind",
  "DQ__Gender=Fem|Number=Plur|PronType=Int",
  "DQ__Gender=Fem|Number=Sing|PronType=Int",
  "DQ__Gender=Masc|Number=Plur|PronType=Int",
  "DQ__Gender=Masc|Number=Sing|PronType=Int",
  "DQ__Number=Plur|PronType=Int",
  "DQ__Number=Sing|PronType=Int",
  "DQ__PronType=Int",
  "DQ___",
  "DR__Number=Plur|PronType=Rel",
  "DR__PronType=Rel",
  "E__Gender=Masc|Number=Sing",
  "E___",
  "FB___",
  "FC___",
  "FF___",
  "FS___",
  "I__Polarity=Neg",
  "I__Polarity=Pos",
  "I___",
  "NO__Gender=Fem|Number=Plur|NumType=Ord",
  "NO__Gender=Fem|Number=Sing|NumType=Ord",
  "NO__Gender=Masc|Number=Plur",
  "NO__Gender=Masc|Number=Plur|NumType=Ord",
  "NO__Gender=Masc|Number=Sing|NumType=Ord",
  "NO__NumType=Ord",
  "NO__Number=Sing|NumType=Ord",
  "NO___",
  "N__Gender=Masc|Number=Sing",
  "N__NumType=Card",
  "N__NumType=Range",
  "N___",
  "PART___",
  "PC__Clitic=Yes|Definite=Def|Gender=Fem|Number=Plur|PronType=Art",
  "PC__Clitic=Yes|Gender=Fem|Number=Plur|Person=3|PronType=Prs",
  "PC__Clitic=Yes|Gender=Fem|Number=Plur|PronType=Prs",
  "PC__Clitic=Yes|Gender=Fem|Number=Sing|Person=3|PronType=Prs",
  "PC__Clitic=Yes|Gender=Fem|Person=3|PronType=Prs",
  "PC__Clitic=Yes|Gender=Masc|Number=Plur|Person=3|PronType=Prs",
  "PC__Clitic=Yes|Gender=Masc|Number=Sing|Person=3|PronType=Prs",
  "PC__Clitic=Yes|Gender=Masc|Number=Sing|PronType=Prs",
  "PC__Clitic=Yes|Number=Plur|Person=1|PronType=Prs",
  "PC__Clitic=Yes|Number=Plur|Person=2|PronType=Prs",
  "PC__Clitic=Yes|Number=Plur|Person=3|PronType=Prs",
  "PC__Clitic=Yes|Number=Plur|PronType=Prs",
  "PC__Clitic=Yes|Number=Sing|Person=1|PronType=Prs",
  "PC__Clitic=Yes|Number=Sing|Person=2|PronType=Prs",
  "PC__Clitic=Yes|Number=Sing|Person=3|PronType=Prs",
  "PC__Clitic=Yes|Person=3|PronType=Prs",
  "PC__Clitic=Yes|PronType=Prs",
  "PD__Gender=Fem|Number=Plur|PronType=Dem",
  "PD__Gender=Fem|Number=Sing|PronType=Dem",
  "PD__Gender=Masc|Number=Plur|PronType=Dem",
  "PD__Gender=Masc|Number=Sing|PronType=Dem",
  "PD__Number=Plur|PronType=Dem",
  "PD__Number=Sing|PronType=Dem",
  "PD__PronType=Dem",
  "PE__Gender=Fem|Number=Plur|Person=3|PronType=Prs",
  "PE__Gender=Fem|Number=Sing|Person=3|PronType=Prs",
  "PE__Gender=Masc|Number=Plur|Person=3|PronType=Prs",
  "PE__Gender=Masc|Number=Sing|Person=3|PronType=Prs",
  "PE__Number=Plur|Person=1|PronType=Prs",
  "PE__Number=Plur|Person=2|PronType=Prs",
  "PE__Number=Plur|Person=3|PronType=Prs",
  "PE__Number=Sing|Person=1|PronType=Prs",
  "PE__Number=Sing|Person=2|PronType=Prs",
  "PE__Number=Sing|Person=3|PronType=Prs",
  "PE__Person=3|PronType=Prs",
  "PE__PronType=Prs",
  "PI__Gender=Fem|Number=Plur|PronType=Ind",
  "PI__Gender=Fem|Number=Sing|PronType=Ind",
  "PI__Gender=Masc|Number=Plur|PronType=Ind",
  "PI__Gender=Masc|Number=Sing",
  "PI__Gender=Masc|Number=Sing|PronType=Ind",
  "PI__Number=Plur|PronType=Ind",
  "PI__Number=Sing|PronType=Ind",
  "PI__PronType=Ind",
  "PP__Gender=Fem|Number=Sing|Poss=Yes|PronType=Prs",
  "PP__Gender=Masc|Number=Plur|Poss=Yes|PronType=Prs",
  "PP__Gender=Masc|Number=Sing|Poss=Yes|PronType=Prs",
  "PP__Number=Plur|Poss=Yes|PronType=Prs",
  "PP__Number=Sing|Poss=Yes|PronType=Prs",
  "PQ__Gender=Fem|Number=Plur|PronType=Int",
  "PQ__Gender=Fem|Number=Sing|PronType=Int",
  "PQ__Gender=Masc|Number=Plur|PronType=Int",
  "PQ__Gender=Masc|Number=Sing|PronType=Int",
  "PQ__Number=Plur|PronType=Int",
  "PQ__Number=Sing|PronType=Int",
  "PQ__PronType=Int",
  "PR__Gender=Masc|Number=Plur|PronType=Rel",
  "PR__Gender=Masc|Number=Sing|PronType=Rel",
  "PR__Gender=Masc|PronType=Rel",
  "PR__Number=Plur|PronType=Rel",
  "PR__Number=Sing|PronType=Rel",
  "PR__Person=3|PronType=Rel",
  "PR__PronType=Rel",
  "RD__Definite=Def",
  "RD__Definite=Def|Gender=Fem",
  "RD__Definite=Def|Gender=Fem|Number=Plur|PronType=Art",
  "RD__Definite=Def|Gender=Fem|Number=Sing|PronType=Art",
  "RD__Definite=Def|Gender=Masc|Number=Plur|PronType=Art",
  "RD__Definite=Def|Gender=Masc|Number=Sing|PronType=Art",
  "RD__Definite=Def|Number=Plur|PronType=Art",
  "RD__Definite=Def|Number=Sing|PronType=Art",
  "RD__Definite=Def|PronType=Art",
  "RD__Gender=Fem|Number=Sing",
  "RD__Gender=Masc|Number=Sing",
  "RD__Number=Sing",
  "RD__Number=Sing|PronType=Art",
  "RI__Definite=Ind|Gender=Fem|Number=Plur|PronType=Art",
  "RI__Definite=Ind|Gender=Fem|Number=Sing|PronType=Art",
  "RI__Definite=Ind|Gender=Masc|Number=Plur|PronType=Art",
  "RI__Definite=Ind|Gender=Masc|Number=Sing|PronType=Art",
  "RI__Definite=Ind|Number=Sing|PronType=Art",
  "RI__Definite=Ind|PronType=Art",
  "SP__Gender=Fem|Number=Plur",
  "SP__NumType=Card",
  "SP___",
  "SW__Foreign=Yes",
  "SW__Foreign=Yes|Gender=Masc",
  "SW__Foreign=Yes|Number=Sing",
  "SYM___",
  "S__Gender=Fem",
  "S__Gender=Fem|Number=Plur",
  "S__Gender=Fem|Number=Sing",
  "S__Gender=Masc",
  "S__Gender=Masc|Number=Plur",
  "S__Gender=Masc|Number=Sing",
  "S__Gender=Masc|Number=Sing|Tense=Past|VerbForm=Part",
  "S__Number=Plur",
  "S__Number=Sing",
  "S___",
  "Sw___",
  "T__Gender=Fem|Number=Plur|PronType=Tot",
  "T__Gender=Fem|Number=Sing",
  "T__Gender=Fem|Number=Sing|PronType=Tot",
  "T__Gender=Masc|Number=Plur|PronType=Tot",
  "T__Gender=Masc|Number=Sing|PronType=Tot",
  "T__Number=Plur|PronType=Tot",
  "T__PronType=Tot",
  "VA__Gender=Fem|Number=Plur|Tense=Past|VerbForm=Part",
  "VA__Gender=Fem|Number=Sing|Tense=Past|VerbForm=Part",
  "VA__Gender=Masc|Number=Plur|Tense=Past|VerbForm=Part",
  "VA__Gender=Masc|Number=Sing|Tense=Past|VerbForm=Part",
  "VA__Mood=Cnd|Number=Plur|Person=1|Tense=Pres|VerbForm=Fin",
  "VA__Mood=Cnd|Number=Plur|Person=3|Tense=Pres|VerbForm=Fin",
  "VA__Mood=Cnd|Number=Sing|Person=1|Tense=Pres|VerbForm=Fin",
  "VA__Mood=Cnd|Number=Sing|Person=3|Tense=Pres|VerbForm=Fin",
  "VA__Mood=Ind|Number=Plur|Person=1|Tense=Fut|VerbForm=Fin",
  "VA__Mood=Ind|Number=Plur|Person=1|Tense=Imp|VerbForm=Fin",
  "VA__Mood=Ind|Number=Plur|Person=1|Tense=Pres|VerbForm=Fin",
  "VA__Mood=Ind|Number=Plur|Person=2|Tense=Fut|VerbForm=Fin",
  "VA__Mood=Ind|Number=Plur|Person=2|Tense=Imp|VerbForm=Fin",
  "VA__Mood=Ind|Number=Plur|Person=2|Tense=Pres|VerbForm=Fin",
  "VA__Mood=Ind|Number=Plur|Person=3|Tense=Fut|VerbForm=Fin",
  "VA__Mood=Ind|Number=Plur|Person=3|Tense=Imp|VerbForm=Fin",
  "VA__Mood=Ind|Number=Plur|Person=3|Tense=Past|VerbForm=Fin",
  "VA__Mood=Ind|Number=Plur|Person=3|Tense=Pres|VerbForm=Fin",
  "VA__Mood=Ind|Number=Sing|Person=1|Tense=Fut|VerbForm=Fin",
  "VA__Mood=Ind|Number=Sing|Person=1|Tense=Imp|VerbForm=Fin",
  "VA__Mood=Ind|Number=Sing|Person=1|Tense=Past|VerbForm=Fin",
  "VA__Mood=Ind|Number=Sing|Person=1|Tense=Pres|VerbForm=Fin",
  "VA__Mood=Ind|Number=Sing|Person=2|Tense=Fut|VerbForm=Fin",
  "VA__Mood=Ind|Number=Sing|Person=2|Tense=Pres|VerbForm=Fin",
  "VA__Mood=Ind|Number=Sing|Person=3|Tense=Fut|VerbForm=Fin",
  "VA__Mood=Ind|Number=Sing|Person=3|Tense=Imp|VerbForm=Fin",
  "VA__Mood=Ind|Number=Sing|Person=3|Tense=Past|VerbForm=Fin",
  "VA__Mood=Ind|Number=Sing|Person=3|Tense=Pres|VerbForm=Fin",
  "VA__Mood=Sub|Number=Plur|Person=2|Tense=Pres|VerbForm=Fin",
  "VA__Mood=Sub|Number=Plur|Person=3|Tense=Imp|VerbForm=Fin",
  "VA__Mood=Sub|Number=Plur|Person=3|Tense=Pres|VerbForm=Fin",
  "VA__Mood=Sub|Number=Sing|Person=1|Tense=Imp|VerbForm=Fin",
  "VA__Mood=Sub|Number=Sing|Person=3|Tense=Imp|VerbForm=Fin",
  "VA__Mood=Sub|Number=Sing|Person=3|Tense=Pres|VerbForm=Fin",
  "VA__VerbForm=Ger",
  "VA__VerbForm=Inf",
  "VM__Gender=Fem|Number=Sing|Tense=Past|VerbForm=Part",
  "VM__Gender=Masc|Number=Sing|Tense=Past|VerbForm=Part",
  "VM__Mood=Cnd|Number=Plur|Person=1|Tense=Pres|VerbForm=Fin",
  "VM__Mood=Cnd|Number=Plur|Person=2|Tense=Pres|VerbForm=Fin",
  "VM__Mood=Cnd|Number=Plur|Person=3|Tense=Pres|VerbForm=Fin",
  "VM__Mood=Cnd|Number=Sing|Person=1|Tense=Pres|VerbForm=Fin",
  "VM__Mood=Cnd|Number=Sing|Person=2|Tense=Pres|VerbForm=Fin",
  "VM__Mood=Cnd|Number=Sing|Person=3|Tense=Pres|VerbForm=Fin",
  "VM__Mood=Imp|Number=Plur|Person=2|Tense=Pres|VerbForm=Fin",
  "VM__Mood=Imp|Number=Sing|Person=2|Tense=Pres|VerbForm=Fin",
  "VM__Mood=Ind|Number=Plur|Person=1|Tense=Fut|VerbForm=Fin",
  "VM__Mood=Ind|Number=Plur|Person=1|Tense=Imp|VerbForm=Fin",
  "VM__Mood=Ind|Number=Plur|Person=1|Tense=Pres|VerbForm=Fin",
  "VM__Mood=Ind|Number=Plur|Person=2|Tense=Fut|VerbForm=Fin",
  "VM__Mood=Ind|Number=Plur|Person=2|Tense=Pres|VerbForm=Fin",
  "VM__Mood=Ind|Number=Plur|Person=3|Tense=Fut|VerbForm=Fin",
  "VM__Mood=Ind|Number=Plur|Person=3|Tense=Imp|VerbForm=Fin",
  "VM__Mood=Ind|Number=Plur|Person=3|Tense=Past|VerbForm=Fin",
  "VM__Mood=Ind|Number=Plur|Person=3|Tense=Pres|VerbForm=Fin",
  "VM__Mood=Ind|Number=Sing|Person=1|Tense=Imp|VerbForm=Fin",
  "VM__Mood=Ind|Number=Sing|Person=1|Tense=Pres|VerbForm=Fin",
  "VM__Mood=Ind|Number=Sing|Person=2|Tense=Fut|VerbForm=Fin",
  "VM__Mood=Ind|Number=Sing|Person=2|Tense=Imp|VerbForm=Fin",
  "VM__Mood=Ind|Number=Sing|Person=2|Tense=Pres|VerbForm=Fin",
  "VM__Mood=Ind|Number=Sing|Person=3|Tense=Fut|VerbForm=Fin",
  "VM__Mood=Ind|Number=Sing|Person=3|Tense=Imp|VerbForm=Fin",
  "VM__Mood=Ind|Number=Sing|Person=3|Tense=Past|VerbForm=Fin",
  "VM__Mood=Ind|Number=Sing|Person=3|Tense=Pres|VerbForm=Fin",
  "VM__Mood=Sub|Number=Plur|Person=1|Tense=Imp|VerbForm=Fin",
  "VM__Mood=Sub|Number=Plur|Person=1|Tense=Pres|VerbForm=Fin",
  "VM__Mood=Sub|Number=Plur|Person=3|Tense=Imp|VerbForm=Fin",
  "VM__Mood=Sub|Number=Plur|Person=3|Tense=Pres|VerbForm=Fin",
  "VM__Mood=Sub|Number=Sing|Person=3|Tense=Imp|VerbForm=Fin",
  "VM__Mood=Sub|Number=Sing|Person=3|Tense=Pres|VerbForm=Fin",
  "VM__VerbForm=Ger",
  "VM__VerbForm=Inf",
  "V__Gender=Fem|Number=Plur|Tense=Past|VerbForm=Part",
  "V__Gender=Fem|Number=Sing|Tense=Past|VerbForm=Part",
  "V__Gender=Masc|Number=Plur|Tense=Past|VerbForm=Fin",
  "V__Gender=Masc|Number=Plur|Tense=Past|VerbForm=Part",
  "V__Gender=Masc|Number=Sing|Tense=Past|VerbForm=Part",
  "V__Mood=Cnd|Number=Plur|Person=1|Tense=Pres|VerbForm=Fin",
  "V__Mood=Cnd|Number=Plur|Person=2|Tense=Pres|VerbForm=Fin",
  "V__Mood=Cnd|Number=Plur|Person=3|Tense=Pres|VerbForm=Fin",
  "V__Mood=Cnd|Number=Sing|Person=1|Tense=Pres|VerbForm=Fin",
  "V__Mood=Cnd|Number=Sing|Person=2|Tense=Pres|VerbForm=Fin",
  "V__Mood=Cnd|Number=Sing|Person=3|Tense=Pres|VerbForm=Fin",
  "V__Mood=Imp|Number=Plur|Person=1|Tense=Pres|VerbForm=Fin",
  "V__Mood=Imp|Number=Plur|Person=2|Tense=Pres|VerbForm=Fin",
  "V__Mood=Imp|Number=Sing|Person=2|Tense=Pres|VerbForm=Fin",
  "V__Mood=Imp|Number=Sing|Person=3|Tense=Pres|VerbForm=Fin",
  "V__Mood=Ind|Number=Plur|Person=1|Tense=Fut|VerbForm=Fin",
  "V__Mood=Ind|Number=Plur|Person=1|Tense=Imp|VerbForm=Fin",
  "V__Mood=Ind|Number=Plur|Person=1|Tense=Past|VerbForm=Fin",
  "V__Mood=Ind|Number=Plur|Person=1|Tense=Pres|VerbForm=Fin",
  "V__Mood=Ind|Number=Plur|Person=2|Tense=Fut|VerbForm=Fin",
  "V__Mood=Ind|Number=Plur|Person=2|Tense=Pres|VerbForm=Fin",
  "V__Mood=Ind|Number=Plur|Person=3|Tense=Fut|VerbForm=Fin",
  "V__Mood=Ind|Number=Plur|Person=3|Tense=Imp|VerbForm=Fin",
  "V__Mood=Ind|Number=Plur|Person=3|Tense=Past|VerbForm=Fin",
  "V__Mood=Ind|Number=Plur|Person=3|Tense=Pres|VerbForm=Fin",
  "V__Mood=Ind|Number=Sing|Person=1|Tense=Fut|VerbForm=Fin",
  "V__Mood=Ind|Number=Sing|Person=1|Tense=Imp|VerbForm=Fin",
  "V__Mood=Ind|Number=Sing|Person=1|Tense=Past|VerbForm=Fin",
  "V__Mood=Ind|Number=Sing|Person=1|Tense=Pres|VerbForm=Fin",
  "V__Mood=Ind|Number=Sing|Person=2|Tense=Fut|VerbForm=Fin",
  "V__Mood=Ind|Number=Sing|Person=2|Tense=Pres|VerbForm=Fin",
  "V__Mood=Ind|Number=Sing|Person=3|Tense=Fut|VerbForm=Fin",
  "V__Mood=Ind|Number=Sing|Person=3|Tense=Imp|VerbForm=Fin",
  "V__Mood=Ind|Number=Sing|Person=3|Tense=Past|VerbForm=Fin",
  "V__Mood=Ind|Number=Sing|Person=3|Tense=Pres|VerbForm=Fin",
  "V__Mood=Ind|Person=3|Tense=Pres|VerbForm=Fin",
  "V__Mood=Ind|Tense=Pres|VerbForm=Fin",
  "V__Mood=Sub|Number=Plur|Person=1|Tense=Imp|VerbForm=Fin",
  "V__Mood=Sub|Number=Plur|Person=1|Tense=Pres|VerbForm=Fin",
  "V__Mood=Sub|Number=Plur|Person=2|Tense=Imp|VerbForm=Fin",
  "V__Mood=Sub|Number=Plur|Person=2|Tense=Pres|VerbForm=Fin",
  "V__Mood=Sub|Number=Plur|Person=3|Tense=Imp|VerbForm=Fin",
  "V__Mood=Sub|Number=Plur|Person=3|Tense=Pres|VerbForm=Fin",
  "V__Mood=Sub|Number=Sing|Person=1|Tense=Imp|VerbForm=Fin",
  "V__Mood=Sub|Number=Sing|Person=1|Tense=Pres|VerbForm=Fin",
  "V__Mood=Sub|Number=Sing|Person=2|Tense=Pres|VerbForm=Fin",
  "V__Mood=Sub|Number=Sing|Person=3|Tense=Imp|VerbForm=Fin",
  "V__Mood=Sub|Number=Sing|Person=3|Tense=Pres|VerbForm=Fin",
  "V__Mood=Sub|Number=Sing|Person=3|VerbForm=Fin",
  "V__Number=Plur|Tense=Pres|VerbForm=Part",
  "V__Number=Sing|Tense=Pres|VerbForm=Part",
  "V__Tense=Past|VerbForm=Part",
  "V__VerbForm=Ger",
  "V__VerbForm=Inf",
  "X___",
  "_SP",
  "\t",
  "it",
  "\n",
  " ",
  "\")",
  "\"",
  "'",
  "''",
  "(*_*)",
  "(",
  "_*)",
  "(-8",
  "(-d",
  "(-:",
  "(-;",
  "(-_-)",
  "_-)",
  "(._.)",
  "_.)",
  "(:",
  "(;",
  "(=",
  "(>_<)",
  "_<)",
  "(^_^)",
  "_^)",
  "(o:",
  "(x:",
  "(\u00ac_\u00ac)",
  "_\u00ac)",
  "(\u0ca0_\u0ca0)",
  "_\u0ca0)",
  "(x_x)",
  "(\u256f\u00b0\u25a1\u00b0\uff09\u256f\ufe35\u253b\u2501\u253b",
  "\u253b\u2501\u253b",
  ")-:",
  ")",
  "):",
  "-_-",
  "-",
  "-__-",
  "__-",
  "._.",
  ".",
  "0.0",
  "0",
  "d.d",
  "0.o",
  "d.x",
  "0_0",
  "d_d",
  "0_o",
  "d_x",
  "8)",
  "8",
  "d)",
  "8-)",
  "d-)",
  "8-D",
  "8-d",
  "d-X",
  "8D",
  "8d",
  "dX",
  ":'(",
  ":",
  ":')",
  ":'-(",
  "'-(",
  ":'-)",
  "'-)",
  ":(",
  ":((",
  ":(((",
  "(((",
  ":()",
  ":)",
  ":))",
  ":)))",
  ")))",
  ":*",
  ":-(",
  ":-((",
  "-((",
  ":-(((",
  ":-)",
  ":-))",
  "-))",
  ":-)))",
  ":-*",
  ":-/",
  ":-0",
  ":-d",
  ":-3",
  ":->",
  ":-D",
  ":-X",
  ":-O",
  ":-o",
  ":-P",
  ":-p",
  ":-x",
  ":-]",
  ":-|",
  ":-}",
  ":/",
  ":0",
  ":d",
  ":1",
  ":3",
  ":>",
  ":D",
  ":X",
  ":O",
  ":o",
  ":P",
  ":p",
  ":x",
  ":]",
  ":o)",
  ":x)",
  ":|",
  ":}",
  ":\u2019(",
  ":\u2019)",
  ":\u2019-(",
  "\u2019-(",
  ":\u2019-)",
  "\u2019-)",
  ";)",
  ";",
  ";-)",
  ";-D",
  ";-d",
  ";-X",
  ";D",
  ";d",
  ";X",
  ";_;",
  "<.<",
  "<",
  "</3",
  "</d",
  "<3",
  "<d",
  "<33",
  "<dd",
  "<333",
  "333",
  "<ddd",
  "<space>",
  "ce>",
  "<xxxx>",
  "=(",
  "=",
  "=)",
  "=/",
  "=3",
  "=d",
  "=D",
  "=X",
  "=|",
  ">.<",
  ">",
  ">.>",
  ">:(",
  ">:o",
  ">:x",
  "><(((*>",
  "(*>",
  "@_@",
  "@",
  "C++",
  "c++",
  "C",
  "X++",
  "O.O",
  "o.o",
  "O",
  "X.X",
  "O.o",
  "X.x",
  "O_O",
  "o_o",
  "X_X",
  "O_o",
  "X_x",
  "V.V",
  "v.v",
  "V",
  "V_V",
  "v_v",
  "XD",
  "xd",
  "XX",
  "XDD",
  "xdd",
  "XXX",
  "[-:",
  "[",
  "[:",
  "\\\")",
  "\\",
  "\\n",
  "\\x",
  "\\t",
  "^_^",
  "^",
  "^__^",
  "__^",
  "^___^",
  "a.",
  "a",
  "x.",
  "b.",
  "b",
  "c.",
  "c",
  "d.",
  "d",
  "e.",
  "e",
  "f.",
  "f",
  "g.",
  "g",
  "h.",
  "h",
  "i.",
  "i",
  "j.",
  "j",
  "k.",
  "k",
  "l.",
  "l",
  "m.",
  "m",
  "n.",
  "n",
  "o.",
  "o",
  "o.0",
  "x.d",
  "o.O",
  "x.X",
  "x.x",
  "o_0",
  "x_d",
  "o_O",
  "x_X",
  "x_x",
  "p.",
  "p",
  "po'",
  "poco",
  "xx'",
  "po\u2019",
  "xx\u2019",
  "q.",
  "q",
  "r.",
  "r",
  "s.",
  "s",
  "t.",
  "t",
  "u.",
  "u",
  "v.",
  "v",
  "w.",
  "w",
  "x",
  "xD",
  "xX",
  "xDD",
  "xXX",
  "y.",
  "y",
  "z.",
  "z",
  "\u00a0",
  "  ",
  "\u00af\\(\u30c4)/\u00af",
  "\u00af",
  ")/\u00af",
  "\u00af\\(x)/\u00af",
  "\u00e4.",
  "\u00e4",
  "\u00f6.",
  "\u00f6",
  "\u00fc.",
  "\u00fc",
  "\u0ca0_\u0ca0",
  "\u0ca0",
  "\u0ca0\ufe35\u0ca0",
  "x\ufe35x",
  "\u2014",
  "\u2019",
  "\u2019\u2019",
  "ROOT",
  "case",
  "aux:pass",
  "nummod",
  "det:poss",
  "nsubj:pass",
  "expl:impers",
  "det:predet",
  "expl:pass",
  "vocative",
  "discourse",
  "flat:name",
  "acl:relcl",
  "obl:agent",
  "fixed",
  "compound",
  "flat",
  "flat:foreign",
  "punct||conj",
  "punct||nmod",
  "orphan",
  "nmod||obj",
  "cc||conj",
  "PER",
  "MISC",
  "COGNOME",
  "CITTA",
  "AZIENDA",
  "Molte",
  "molte",
  "M",
  "lte",
  "Xxxxx",
  "persone",
  "one",
  "xxxx",
  "note",
  "ote",
  "negli",
  "gli",
  "Stati",
  "stati",
  "S",
  "ati",
  "Uniti",
  "uniti",
  "U",
  "iti",
  "hanno",
  "nno",
  "rilasciato",
  "ato",
  "dichiarazioni",
  "oni",
  "sulla",
  "lla",
  "morte",
  "rte",
  "di",
  "xx",
  "Steve",
  "steve",
  "eve",
  ",",
  "Jobs",
  "jobs",
  "J",
  "obs",
  "Xxxx",
  "fra",
  "xxx",
  "cui",
  "Barack",
  "barack",
  "B",
  "ack",
  "Obama",
  "obama",
  "ama",
  "Bill",
  "bill",
  "ill",
  "Gates",
  "gates",
  "G",
  "tes",
  "Bob",
  "bob",
  "Xxx",
  "Iger",
  "iger",
  "I",
  "ger",
  "Mark",
  "ark",
  "Zuckerberg",
  "zuckerberg",
  "Z",
  "erg",
  "Sergey",
  "sergey",
  "gey",
  "Brin",
  "brin",
  "rin",
  "Larry",
  "larry",
  "L",
  "rry",
  "Page",
  "page",
  "P",
  "age",
  "Tim",
  "tim",
  "T",
  "Cook",
  "cook",
  "ook",
  "Meg",
  "meg",
  "Whitman",
  "whitman",
  "W",
  "man",
  "Ballmer",
  "ballmer",
  "mer",
  "Richard",
  "richard",
  "R",
  "ard",
  "Stallman",
  "stallman",
  "Elon",
  "elon",
  "E",
  "lon",
  "Reeve",
  "reeve",
  "Musk",
  "musk",
  "usk",
  "Pretoria",
  "pretoria",
  "ria",
  "28",
  "2",
  "dd",
  "giugno",
  "gno",
  "1971",
  "1",
  "971",
  "dddd",
  "\u00e8",
  "un",
  "imprenditore",
  "ore",
  "sudafricano",
  "ano",
  "con",
  "cittadinanza",
  "nza",
  "canadese",
  "ese",
  "naturalizzato",
  "statunitense",
  "nse",
  "La",
  "la",
  "Xx",
  "sua",
  "ricchezza",
  "zza",
  "al",
  "2021",
  "021",
  "stata",
  "ata",
  "valutata",
  "dalla",
  "rivista",
  "sta",
  "Forbes",
  "forbes",
  "F",
  "bes",
  "per",
  "circa",
  "rca",
  "24.7",
  "4.7",
  "dd.d",
  "miliardi",
  "rdi",
  "dollari",
  "ari",
  "rendendolo",
  "olo",
  "il",
  "secondo",
  "ndo",
  "uomo",
  "omo",
  "pi\u00f9",
  "ricco",
  "cco",
  "d'",
  "x'",
  "Italia",
  "italia",
  "lia",
  "59\u00ba",
  "5",
  "ddx",
  "mondo",
  "Jan",
  "jan",
  "Koum",
  "koum",
  "K",
  "oum",
  "Kiev",
  "kiev",
  "iev",
  "24",
  "febbraio",
  "aio",
  "1976",
  "976",
  "informatico",
  "ico",
  "\u00c8",
  "co",
  "fondatore",
  "presidente",
  "nte",
  "del",
  "consiglio",
  "lio",
  "amministrazione",
  "amministratore",
  "delegato",
  "Netflix",
  "netflix",
  "N",
  "lix",
  "ha",
  "fatto",
  "tto",
  "parte",
  "Facebook",
  "facebook",
  "dal",
  "2011",
  "011",
  "fino",
  "ino",
  "2019",
  "019",
  "altre",
  "tre",
  "numerose",
  "ose",
  "organizzazioni",
  "no",
  "profit",
  "fit",
  "Nato",
  "nato",
  "cresciuto",
  "uto",
  "Seattle",
  "seattle",
  "tle",
  "nello",
  "llo",
  "stato",
  "Washington",
  "washington",
  "ton",
  "avvi\u00f2",
  "vi\u00f2",
  "Microsoft",
  "microsoft",
  "oft",
  "l'",
  "amico",
  "infanzia",
  "zia",
  "Paul",
  "paul",
  "aul",
  "Allen",
  "allen",
  "A",
  "len",
  "nel",
  "1975",
  "975",
  "Albuquerque",
  "albuquerque",
  "que",
  "Nuovo",
  "nuovo",
  "ovo",
  "Messico",
  "messico",
  "sarebbe",
  "bbe",
  "diventata",
  "azienda",
  "nda",
  "software",
  "are",
  "personal",
  "nal",
  "computer",
  "ter",
  "grande",
  "nde",
  "Al",
  "risulta",
  "lta",
  "essere",
  "ere",
  "sesto",
  "sto",
  "dopo",
  "opo",
  "patrimonio",
  "nio",
  "109.5",
  "9.5",
  "ddd.d",
  "anche",
  "che",
  "notevole",
  "ole",
  "filantropo",
  "poich\u00e9",
  "ch\u00e9",
  "promesso",
  "sso",
  "impegnare",
  "%",
  "99",
  "9",
  "suo",
  "in",
  "cause",
  "use",
  "filantropiche",
  "particolare",
  "tramite",
  "ite",
  "Foundation",
  "foundation",
  "ion",
  "Tra",
  "tra",
  "personaggi",
  "ggi",
  "significativi",
  "ivi",
  "della",
  "storia",
  "finanza",
  "viene",
  "ene",
  "presentato",
  "nei",
  "suoi",
  "uoi",
  "interventi",
  "nti",
  "formula",
  "ula",
  "\u00ab",
  "Ladies",
  "ladies",
  "ies",
  "and",
  "Gentlemen",
  "gentlemen",
  "men",
  "the",
  "legendary",
  "ary",
  "investor",
  "tor",
  "Warren",
  "warren",
  "ren",
  "Buffett\u00bb",
  "buffett\u00bb",
  "tt\u00bb",
  "Xxxxx\u00bb",
  "Elliot",
  "elliot",
  "iot",
  "IPA",
  "ipa",
  "m\u0251\u0279k",
  "\u0251\u0279k",
  "\u02c8\u025bli\u0259t",
  "\u02c8",
  "i\u0259t",
  "]",
  "\u02c8z\u028ck\u0259\u0279b\u025c\u0279g",
  "\u025c\u0279g",
  "White",
  "white",
  "Plains",
  "plains",
  "ins",
  "14",
  "maggio",
  "gio",
  "1984",
  "984",
  "conosciuto",
  "uno",
  "dei",
  "fondatori",
  "ori",
  "social",
  "ial",
  "network",
  "ork",
  "noto",
  "oto",
  "livello",
  "internazionale",
  "ale",
  "aver",
  "ver",
  "guidato",
  "profondo",
  "rinnovamento",
  "nto",
  "FIAT",
  "fiat",
  "IAT",
  "XXXX",
  "Nel",
  "2012",
  "012",
  "tutto",
  "numero",
  "ero",
  "utenti",
  "registrati",
  "raggiunse",
  "miliardo",
  "rdo",
  "Secondo",
  "19",
  "stimato",
  "187.5",
  "7.5",
  "William",
  "william",
  "iam",
  "Henry",
  "henry",
  "H",
  "nry",
  "III",
  "iii",
  "meglio",
  "come",
  "ome",
  "ottobre",
  "bre",
  "1955",
  "955",
  "programmatore",
  "Wilmot",
  "wilmot",
  "mot",
  "Reed",
  "reed",
  "eed",
  "Hastings",
  "hastings",
  "ngs",
  "Jr",
  "jr",
  "Boston",
  "boston",
  "1960",
  "960",
  "Dal",
  "D",
  "16",
  "gennaio",
  "Stellantis",
  "stellantis",
  "tis",
  "Ferrari",
  "ferrari",
  "Giovanni",
  "giovanni",
  "nni",
  "Agnelli",
  "agnelli",
  "lli",
  "B.V.",
  "b.v.",
  ".V.",
  "X.X.",
  "GEDI",
  "gedi",
  "EDI",
  "Gruppo",
  "gruppo",
  "ppo",
  "Editoriale",
  "editoriale",
  "Oprah",
  "oprah",
  "rah",
  "Gail",
  "gail",
  "ail",
  "Winfrey",
  "winfrey",
  "rey",
  "nota",
  "ota",
  "semplicemente",
  "Kosciusko",
  "kosciusko",
  "sko",
  "29",
  "1954",
  "954",
  "una",
  "conduttrice",
  "ice",
  "televisiva",
  "iva",
  "autrice",
  "attrice",
  "scrittrice",
  "filantropa",
  "opa",
  "imprenditrice",
  "Edward",
  "edward",
  "Buffett",
  "buffett",
  "ett",
  "Omaha",
  "omaha",
  "aha",
  "30",
  "3",
  "agosto",
  "1930",
  "930",
  "economista",
  "soprannominato",
  "oracolo",
  "\u00bb",
  "sorprendente",
  "abilit\u00e0",
  "it\u00e0",
  "investimenti",
  "finanziari",
  "predire",
  "ire",
  "guadagni",
  "gni",
  "perdite",
  "Timothy",
  "timothy",
  "thy",
  "Donald",
  "donald",
  "ald",
  "Mobile",
  "mobile",
  "ile",
  "1\u00ba",
  "dx",
  "novembre",
  "dirigente",
  "ingegnere",
  "Apple",
  "apple",
  "ple",
  "Insieme",
  "insieme",
  "eme",
  "ai",
  "compagni",
  "stanza",
  "studenti",
  "dell'",
  "ll'",
  "xxxx'",
  "Harvard",
  "harvard",
  "University",
  "university",
  "ity",
  "Eduardo",
  "eduardo",
  "Saverin",
  "saverin",
  "Andrew",
  "andrew",
  "rew",
  "McCollum",
  "mccollum",
  "lum",
  "XxXxxxx",
  "Dustin",
  "dustin",
  "tin",
  "Moskovitz",
  "moskovitz",
  "itz",
  "Chris",
  "chris",
  "ris",
  "Hughes",
  "hughes",
  "hes",
  "cre\u00f2",
  "re\u00f2",
  "dormitorio",
  "rio",
  "presentando",
  "poi",
  "progetto",
  "ad",
  "altri",
  "tri",
  "campus",
  "pus",
  "universitari",
  "degli",
  "trasferirsi",
  "rsi",
  "Palo",
  "palo",
  "alo",
  "Alto",
  "alto",
  "lto",
  "California",
  "california",
  "nia",
  "Costituita",
  "costituita",
  "ita",
  "2016",
  "016",
  "studio",
  "dio",
  "notarile",
  "Bruxelles",
  "bruxelles",
  "les",
  "da",
  "Gmbf",
  "gmbf",
  "mbf",
  "Investment",
  "investment",
  "ent",
  "s.\u00e0.r.l",
  "r.l",
  "x.x.x.x",
  "2010",
  "010",
  "Time",
  "time",
  "ime",
  "inserisce",
  "sce",
  "le",
  "100",
  "ddd",
  "ricche",
  "influenti",
  "nell'",
  "annuale",
  "classifica",
  "ica",
  "persona",
  "ona",
  "anno",
  "fu",
  "coinvolto",
  "diverse",
  "rse",
  "azioni",
  "legali",
  "ali",
  "furono",
  "ono",
  "intentate",
  "ate",
  "membri",
  "bri",
  "quali",
  "reclamavano",
  "quota",
  "azionaria",
  "base",
  "ase",
  "loro",
  "oro",
  "coinvolgimento",
  "durante",
  "fase",
  "sviluppo",
  "Questa",
  "questa",
  "Q",
  "opinione",
  "sostenuta",
  "uta",
  "sentenze",
  "nze",
  "giudiziarie",
  "rie",
  "1987",
  "987",
  "incluso",
  "uso",
  "nella",
  "lista",
  "delle",
  "lle",
  "Ferrero",
  "ferrero",
  "International",
  "international",
  "realizzato",
  "utili",
  "ili",
  "928",
  "milioni",
  "\u20ac",
  "$",
  "2020",
  "020",
  "fatturato",
  "raggiunto",
  "12,3",
  "2,3",
  "dd,d",
  "Ha",
  "fondato",
  "societ\u00e0",
  "et\u00e0",
  "NeXT",
  "next",
  "eXT",
  "XxXX",
  "Computer",
  "Il",
  "aprile",
  "2018",
  "018",
  "lasciato",
  "Inc",
  "inc",
  "conseguenza",
  "abbandonato",
  "carica",
  "CEO",
  "ceo",
  "WhatsApp",
  "whatsapp",
  "App",
  "XxxxxXxx",
  "ricopriva",
  "fin",
  "dall'",
  "atto",
  "creazione",
  "applicazione",
  "americana",
  "ana",
  "personale",
  "7,3",
  "7",
  "d,d",
  "USA",
  "usa",
  "6",
  "euro",
  "uro",
  "Berlusconi",
  "berlusconi",
  "318\u00ba",
  "18\u00ba",
  "dddx",
  "bilancio",
  "cio",
  "generale",
  "riportato",
  "pari",
  "10,7",
  "0,7",
  "utile",
  "netto",
  "736,4",
  "6,4",
  "ddd,d",
  "CTO",
  "cto",
  "Space",
  "space",
  "ace",
  "Exploration",
  "exploration",
  "Technologies",
  "technologies",
  "Corporation",
  "corporation",
  "SpaceX",
  "spacex",
  "ceX",
  "XxxxxX",
  "product",
  "uct",
  "architect",
  "ect",
  "Tesla",
  "tesla",
  "sla",
  "Neuralink",
  "neuralink",
  "ink",
  "12",
  "annunci\u00f2",
  "ci\u00f2",
  "avrebbe",
  "partire",
  "2019.John",
  "2019.john",
  "ohn",
  "dddd.Xxxx",
  "Philip",
  "philip",
  "lip",
  "Jacob",
  "jacob",
  "cob",
  "Elkann",
  "elkann",
  "ann",
  "New",
  "new",
  "York",
  "york",
  "Y",
  "italiano",
  "Bernard",
  "bernard",
  "Arnault",
  "arnault",
  "ult",
  "Roubaix",
  "roubaix",
  "aix",
  "marzo",
  "rzo",
  "1949",
  "949",
  "francese",
  "Inoltre",
  "inoltre",
  "SolarCity",
  "solarcity",
  "XxxxxXxxx",
  "The",
  "Boring",
  "boring",
  "ing",
  "Company",
  "company",
  "any",
  "PayPal",
  "paypal",
  "Pal",
  "XxxXxx",
  "OpenAI",
  "openai",
  "nAI",
  "XxxxXX",
  "Altri",
  "stabilimenti",
  "italiani",
  "ani",
  "sono",
  "Pozzuolo",
  "pozzuolo",
  "Martesana",
  "martesana",
  "Balvano",
  "balvano",
  "Sant'",
  "sant'",
  "nt'",
  "Xxxx'",
  "Angelo",
  "angelo",
  "elo",
  "Lombardi",
  "lombardi",
  "entrato",
  "1998",
  "998",
  "vice",
  "operazioni",
  "mondiali",
  "quindi",
  "ndi",
  "ricoperto",
  "rto",
  "ruolo",
  "esecutivo",
  "ivo",
  "vendite",
  "Lussemburgo",
  "lussemburgo",
  "rgo",
  "presente",
  "Teseo",
  "teseo",
  "seo",
  "Capital",
  "capital",
  "tal",
  "Sicav",
  "sicav",
  "cav",
  "Sif",
  "sif",
  "S.A.",
  "s.a.",
  ".A.",
  "finanziaria",
  "investimento",
  "capitali",
  "riconducibile",
  "controllata",
  "fiduciaria",
  "CDM",
  "cdm",
  "Holding",
  "holding",
  "S.C.S.",
  "s.c.s.",
  ".S.",
  "X.X.X.",
  "Tutte",
  "tutte",
  "tte",
  "queste",
  "ste",
  "entit\u00e0",
  "coinvolte",
  "gestione",
  "controllo",
  "Google",
  "google",
  "gle",
  "prima",
  "ima",
  "volta",
  "sino",
  "all'",
  "xxx'",
  "2001",
  "001",
  "ed",
  "seconda",
  "luglio",
  "2015",
  "015",
  "Successivamente",
  "successivamente",
  "assunto",
  "Alphabet",
  "alphabet",
  "bet",
  "controlla",
  "attivit\u00e0",
  "capitalizzazione",
  "Borsa",
  "borsa",
  "rsa",
  "810",
  "creata",
  "permettergli",
  "focalizzarsi",
  "sui",
  "problemi",
  "emi",
  "tecnologici",
  "ici",
  "lungo",
  "ngo",
  "termine",
  "ine",
  "dicembre",
  "2019.Page",
  "2019.page",
  "inventore",
  "PageRank",
  "pagerank",
  "ank",
  "XxxxXxxx",
  "algoritmo",
  "tmo",
  "ricerca",
  "\u00b0",
  "102.8",
  "2.8",
  "Pichai",
  "pichai",
  "hai",
  "Sundararajan",
  "sundararajan",
  "tamil",
  "mil",
  "\u0b9a\u0bc1\u0ba8\u0bcd\u0ba4\u0bb0\u0bcd",
  "\u0b9a",
  "\u0ba4\u0bb0\u0bcd",
  "x\u0bc1x\u0bcdxx\u0bcd",
  "\u0baa\u0bbf\u0b9a\u0bcd\u0b9a\u0bc8",
  "\u0baa",
  "\u0bcd\u0b9a\u0bc8",
  "x\u0bbfx\u0bcdx\u0bc8",
  "Madurai",
  "madurai",
  "rai",
  "10",
  "1972",
  "972",
  "indiano",
  "fa",
  "consigli",
  "Nike",
  "nike",
  "ike",
  "National",
  "national",
  "Football",
  "football",
  "all",
  "fiduciario",
  "Universit\u00e0",
  "universit\u00e0",
  "Duke",
  "duke",
  "uke",
  "cassaforte",
  "famiglia",
  "Fedesa",
  "fedesa",
  "esa",
  "invece",
  "ece",
  "sede",
  "ede",
  "Montecarlo",
  "montecarlo",
  "rlo",
  "Tuttavia",
  "tuttavia",
  "via",
  "27",
  "2017",
  "017",
  "sorpassato",
  "Amazon.com",
  "amazon.com",
  "com",
  "Xxxxx.xxx",
  "Jeff",
  "jeff",
  "eff",
  "Bezos",
  "bezos",
  "zos",
  "tempo",
  "mpo",
  "aveva",
  "eva",
  "US$",
  "us$",
  "XX$",
  "90,6",
  "0,6",
  "126.9",
  "6.9",
  "quarta",
  "rta",
  "ricca",
  "cca",
  "Dopo",
  "persegu\u00ec",
  "gu\u00ec",
  "serie",
  "imprese",
  "2013",
  "013",
  "condannato",
  "quattro",
  "tro",
  "anni",
  "reclusione",
  "condonati",
  "indulto",
  "2006",
  "006",
  "frode",
  "ode",
  "fiscale",
  "sentenza",
  "passata",
  "giudicato",
  "cosiddetto",
  "processo",
  "Mediaset",
  "mediaset",
  "set",
  "Starbucks",
  "starbucks",
  "cks",
  "Trasfer\u00ec",
  "trasfer\u00ec",
  "er\u00ec",
  "gradualmente",
  "incarichi",
  "chi",
  "Ray",
  "ray",
  "Ozzie",
  "ozzie",
  "zie",
  "Craig",
  "craig",
  "aig",
  "Mundie",
  "mundie",
  "die",
  "principale",
  "15",
  "nonch\u00e9",
  "Spagna",
  "spagna",
  "gna",
  "82.7",
  "2.7",
  "Sir",
  "sir",
  "Charles",
  "charles",
  "Nicholas",
  "nicholas",
  "las",
  "Branson",
  "branson",
  "son",
  "Londra",
  "londra",
  "dra",
  "18",
  "1950",
  "950",
  "britannico",
  "Virgin",
  "virgin",
  "gin",
  "Group",
  "group",
  "oup",
  "quale",
  "comprende",
  "oltre",
  "400",
  "4",
  "Proprietario",
  "proprietario",
  "lusso",
  "LVMH",
  "lvmh",
  "VMH",
  "capo",
  "apo",
  "Bloomberg",
  "bloomberg",
  "Europa",
  "europa",
  "terza",
  "rza",
  "mondiale",
  "si",
  "posizion\u00f2",
  "on\u00f2",
  "primo",
  "imo",
  "Ebrei",
  "ebrei",
  "rei",
  "redatta",
  "tta",
  "Jerusalem",
  "jerusalem",
  "lem",
  "Post",
  "post",
  "ost",
  "allora",
  "ora",
  "sempre",
  "pre",
  "occupato",
  "primissime",
  "posizioni",
  "quella",
  "cessato",
  "parlamentare",
  "quasi",
  "asi",
  "vent'",
  "presenza",
  "ininterrotta",
  "nelle",
  "due",
  "camere",
  "1994",
  "994",
  "ammonta",
  "nta",
  "4,3",
  "..",
  "stima",
  "9,8",
  "Amancio",
  "amancio",
  "Ortega",
  "ortega",
  "ega",
  "Gaona",
  "gaona",
  "Busdongo",
  "busdongo",
  "1936",
  "936",
  "spagnolo",
  "catena",
  "ena",
  "negozi",
  "ozi",
  "abbigliamento",
  "Zara",
  "zara",
  "ara",
  "proposto",
  "sistema",
  "ema",
  "trasporto",
  "super",
  "veloce",
  "oce",
  "Hyperloop",
  "hyperloop",
  "oop",
  "Blue",
  "blue",
  "lue",
  "Origin",
  "origin",
  "start",
  "art",
  "up",
  "voli",
  "oli",
  "spaziali",
  "Pixar",
  "pixar",
  "xar",
  "Animation",
  "animation",
  "Studios",
  "studios",
  "ios",
  "acquisto",
  "Walt",
  "walt",
  "alt",
  "Disney",
  "disney",
  "ney",
  "era",
  "membro",
  "bro",
  "maggiore",
  "azionista",
  "Nella",
  "inclusa",
  "ranking",
  "prime",
  "reputazione",
  "ma",
  "superata",
  "posizione",
  "n.4",
  "migliore",
  "industria",
  "italiana",
  "giudizio",
  "zio",
  "consumatori",
  "manager",
  "pagato",
  "America",
  "america",
  "280",
  "Satya",
  "satya",
  "tya",
  "Nadella",
  "nadella",
  "telugu",
  "ugu",
  "\u0c38\u0c24\u0c4d\u0c2f\u0c28\u0c3e\u0c30\u0c3e\u0c2f\u0c23",
  "\u0c38",
  "\u0c3e\u0c2f\u0c23",
  "xx\u0c4dxx\u0c3ex\u0c3exx",
  "\u0c28\u0c3e\u0c26\u0c46\u0c33\u0c4d\u0c32",
  "\u0c28",
  "\u0c33\u0c4d\u0c32",
  "x\u0c3ex\u0c46x\u0c4dx",
  "urdu",
  "rdu",
  "\u0646\u0627\u062f\u06cc\u0644\u0627",
  "\u0646",
  "\u06cc\u0644\u0627",
  "\u0633\u062a\u06cc\u06c1",
  "\u0633",
  "\u062a\u06cc\u06c1",
  "\u0646\u0627\u0631\u0627\u06cc\u0646\u06c1",
  "\u06cc\u0646\u06c1",
  "Hyderabad",
  "hyderabad",
  "bad",
  "1967",
  "967",
  "2014",
  "014",
  "Howard",
  "howard",
  "Schultz",
  "schultz",
  "ltz",
  "1953",
  "953",
  "2009",
  "009",
  "fondarono",
  "Giving",
  "giving",
  "Pledge",
  "pledge",
  "dge",
  "campagna",
  "mezzo",
  "zzo",
  "miliardari",
  "impegnano",
  "donare",
  "almeno",
  "eno",
  "met\u00e0",
  "proprio",
  "alla",
  "filantropia",
  "pia",
  "Si",
  "dimise",
  "ise",
  "chairman",
  "assunse",
  "advisor",
  "sor",
  "tecnologico",
  "conosciuti",
  "uti",
  "imprenditori",
  "rivoluzione",
  "Una",
  "trasposizione",
  "cinematografica",
  "nascita",
  "narrata",
  "film",
  "ilm",
  "Social",
  "Network",
  "119.4",
  "9.4",
  "5\u00ba",
  "Lawrence",
  "lawrence",
  "nce",
  "detto",
  "East",
  "east",
  "ast",
  "Lansing",
  "lansing",
  "26",
  "1973",
  "973",
  "Sergej",
  "sergej",
  "gej",
  "192.4",
  "2.4",
  "multinazionale",
  "specializzata",
  "prodotti",
  "tti",
  "dolciari",
  "Designato",
  "designato",
  "nonno",
  "Gianni",
  "gianni",
  "successore",
  "Exor",
  "exor",
  "xor",
  "N.V.",
  "n.v.",
  "PartnerRe",
  "partnerre",
  "rRe",
  "XxxxxXx",
  "CNH",
  "cnh",
  "Industrial",
  "industrial",
  "Juventus",
  "juventus",
  "tus",
  "sotto",
  "supervisione",
  "commissariale",
  "un'",
  "altra",
  "Peter",
  "peter",
  "Bogaert",
  "bogaert",
  "ert",
  "BV",
  "bv",
  "BVBA",
  "bvba",
  "VBA",
  "inizio",
  "assorbito",
  "ito",
  "incorporato",
  "ruoli",
  "importanti",
  "Fiat",
  "iat",
  "Chrysler",
  "chrysler",
  "ler",
  "Automobiles",
  "automobiles",
  "FCA",
  "fca",
  "Italy",
  "italy",
  "aly",
  "US",
  "us",
  "Con",
  "3340",
  "340",
  "giorni",
  "rni",
  "complessivi",
  "corrispondenti",
  "nove",
  "ove",
  "politico",
  "rimasto",
  "Consiglio",
  "repubblicana",
  "superato",
  "epoche",
  "precedenti",
  "solo",
  "Benito",
  "benito",
  "Mussolini",
  "mussolini",
  "ini",
  "Giolitti",
  "giolitti",
  "presieduto",
  "governi",
  "duraturi",
  "uri",
  "proclamazione",
  "Repubblica",
  "repubblica",
  "diventato",
  "Fortune",
  "fortune",
  "une",
  "500",
  "dichiarasi",
  "pubblicamente",
  "omosessuale",
  "lo",
  "classificato",
  "12\u00ba",
  "potenti",
  "dominazione",
  "politica",
  "imputato",
  "venti",
  "procedimenti",
  "giudiziari",
  "unico",
  "leader",
  "der",
  "presenziato",
  "vertici",
  "G7",
  "g7",
  "Xd",
  "/",
  "G8",
  "g8",
  "Presidente",
  "Paese",
  "paese",
  "ospitante",
  "20\u00ba",
  "Napoli",
  "napoli",
  "27\u00ba",
  "Genova",
  "genova",
  "ova",
  "35\u00ba",
  "L'",
  "X'",
  "Aquila",
  "aquila",
  "ila",
  "SA",
  "sa",
  "sin",
  "legale",
  "domicilio",
  "amministrativo",
  "Findel",
  "findel",
  "Sandweiler",
  "sandweiler",
  "dove",
  "inaugurata",
  "nuova",
  "centrale",
  "quartier",
  "ier",
  "costituito",
  "Fininvest",
  "fininvest",
  "est",
  "1993",
  "993",
  "produzione",
  "multimediale",
  "convergono",
  "Arnoldo",
  "arnoldo",
  "ldo",
  "Mondadori",
  "mondadori",
  "Editore",
  "editore",
  "Silvio",
  "silvio",
  "vio",
  "Communications",
  "communications",
  "ons",
  "rimanendo",
  "figura",
  "ura",
  "simbolo",
  "omonima",
  "Tramite",
  "Starlink",
  "starlink",
  "costellazione",
  "satelliti",
  "prodotta",
  "gestita",
  "vuole",
  "fornire",
  "internet",
  "net",
  "alta",
  "velocit\u00e0",
  "bassa",
  "ssa",
  "latenza",
  "pianeta",
  "eta",
  "146,7",
  "6,7",
  "terzo",
  "piccolo",
  "periodo",
  "odo",
  "riusc\u00ec",
  "sc\u00ec",
  "superarlo",
  "differenza",
  "Jeffrey",
  "jeffrey",
  "Preston",
  "preston",
  "Jorgensen",
  "jorgensen",
  "sen",
  "1964",
  "964",
  "Amazon",
  "amazon",
  "zon",
  "commercio",
  "elettronico",
  "settembre",
  "possedesse",
  "sse",
  "Dall'",
  "Ex",
  "ex",
  "State",
  "state",
  "Board",
  "board",
  "of",
  "Education",
  "education",
  "sostenitore",
  "riforma",
  "rma",
  "istruzione",
  "attraverso",
  "rso",
  "Charter",
  "charter",
  "school",
  "ool",
  "prese",
  "2007",
  "007",
  "23",
  "divenne",
  "nne",
  "miliardario",
  "seguito",
  "successo",
  "fondazione",
  "lavora",
  "salvare",
  "vite",
  "migliorare",
  "salute",
  "ute",
  "globale",
  "lavorando",
  "Rotary",
  "rotary",
  "debellare",
  "poliomielite",
  "Milano",
  "milano",
  "Cavaliere",
  "cavaliere",
  "soprannome",
  "assegnatogli",
  "giornalista",
  "sportivo",
  "Brera",
  "brera",
  "ragione",
  "onorificenza",
  "lavoro",
  "conferitagli",
  "1977",
  "977",
  "Leone",
  "leone",
  "rinunciato",
  "2014.Ha",
  "2014.ha",
  ".Ha",
  "dddd.Xx",
  "iniziato",
  "imprenditoriale",
  "campo",
  "edilizia",
  "25",
  "uomini",
  "affari",
  "Financial",
  "financial",
  "Times",
  "times",
  "mes",
  "Reputation",
  "reputation",
  "Institute",
  "institute",
  "misurazione",
  "aziendale",
  "indagine",
  "quindici",
  "Paesi",
  "paesi",
  "esi",
  "intervistando",
  "80.000",
  "000",
  "dd.ddd",
  "collocato",
  "n.19",
  ".19",
  "x.dd",
  "marchi",
  "affidabili",
  "brand",
  "sul",
  "podio",
  "collocano",
  "Rolex",
  "rolex",
  "lex",
  "Lego",
  "lego",
  "ego",
  "trovano",
  "primi",
  "imi",
  "cento",
  "posti",
  "sti",
  "italiane",
  "ane",
  "Pirelli",
  "pirelli",
  "n.23",
  ".23",
  "Armani",
  "armani",
  "n.24",
  ".24",
  "Barilla",
  "barilla",
  "n.31",
  ".31",
  "Lavazza",
  "lavazza",
  "n.38",
  ".38",
  "Durante",
  "carriera",
  "tenuto",
  "AD",
  "chief",
  "ief",
  "maggior",
  "ior",
  "individuale",
  "Steven",
  "steven",
  "ven",
  "San",
  "san",
  "Francisco",
  "francisco",
  "sco",
  "\u2013",
  "cofondatore",
  "ne",
  "quando",
  "dimesso",
  "motivi",
  "assumendo",
  "conferito",
  "Premio",
  "premio",
  "mio",
  "Oscar",
  "oscar",
  "car",
  "umanitario",
  "Jean",
  "jean",
  "ean",
  "Hersholt",
  "hersholt",
  "olt",
  "Golden",
  "golden",
  "den",
  "Globe",
  "globe",
  "obe",
  "2008",
  "008",
  "proprietaria",
  "rete",
  "ete",
  "on",
  "demand",
  "partnership",
  "hip",
  "Discovery",
  "discovery",
  "ery",
  "distribuito",
  "numerosi",
  "osi",
  "Canada",
  "canada",
  "ada",
  "Australia",
  "australia",
  "Regno",
  "regno",
  "Unito",
  "unito",
  "Sudafrica",
  "sudafrica",
  "Russia",
  "russia",
  "sia",
  "possiede",
  "WW",
  "ww",
  "investendo",
  "editoria",
  "fondando",
  "Magazine",
  "magazine",
  "marchio",
  "hio",
  "An",
  "an",
  "Book",
  "book",
  "scritto",
  "dieci",
  "eci",
  "libri",
  "autobiografici",
  "In",
  "Belgio",
  "belgio",
  "CTH",
  "cth",
  "Invest",
  "invest",
  "estera",
  "FFH",
  "ffh",
  "utilizzata",
  "acquisizioni",
  "fuori",
  "mentre",
  "90,5",
  "0,5",
  "quarto",
  "Carlos",
  "carlos",
  "los",
  "Slim",
  "slim",
  "lim",
  "Hel\u00f9",
  "hel\u00f9",
  "el\u00f9",
  "dichiarato",
  "pianificato",
  "tutta",
  "fortuna",
  "beneficenza",
  "Sergio",
  "sergio",
  "Marchionne",
  "marchionne",
  "Chieti",
  "chieti",
  "eti",
  "17",
  "1952",
  "952",
  "Zurigo",
  "zurigo",
  "igo",
  "importante",
  "Covivio",
  "covivio",
  "Assicurazioni",
  "assicurazioni",
  "Generali",
  "generali",
  "All'",
  "Xxx'",
  "deputata",
  "laburista",
  "britannica",
  "Rachel",
  "rachel",
  "hel",
  "Reeves",
  "reeves",
  "ves",
  "apertamente",
  "accusato",
  "frodare",
  "fisco",
  "evidenziando",
  "divisione",
  "inglese",
  "fronte",
  "419",
  "\u00a3",
  "ultimo",
  "abbia",
  "bia",
  "versato",
  "casse",
  "erario",
  "appena",
  "110",
  "mila",
  "complessivamente",
  "600",
  "ultimi",
  "passato",
  "part",
  "concentrarsi",
  "pieno",
  "Fondazione",
  "&",
  "Melinda",
  "melinda",
  "privata",
  "lui",
  "moglie",
  "lie",
  "istituirono",
  "2000",
  "nominato",
  "quell'",
  "fondata",
  "Giuseppe",
  "giuseppe",
  "ppe",
  "fratello",
  "Pietro",
  "pietro",
  "Piera",
  "piera",
  "Cillario",
  "cillario",
  "1946",
  "946",
  "Alba",
  "alba",
  "lba",
  "Cuneo",
  "cuneo",
  "neo",
  "affermato",
  "obiettivo",
  "ruota",
  "intorno",
  "rno",
  "ideale",
  "cambiare",
  "umanit\u00e0",
  "S.p",
  "s.p",
  "inserito",
  "periodico",
  "elenco",
  "nco",
  "classificandosi",
  "51\u00ba.\u00c8",
  "51\u00ba.\u00e8",
  "\u00ba.\u00c8",
  "ddx.X",
  "vicepresidente",
  "permanente",
  "CdA",
  "cda",
  "XxX",
  "ACEA",
  "acea",
  "CEA",
  "associazione",
  "costruttori",
  "Peterson",
  "peterson",
  "for",
  "Economics",
  "economics",
  "ics",
  "Relazioni",
  "relazioni",
  "Leonardo",
  "leonardo",
  "Del",
  "Vecchio",
  "vecchio",
  "22",
  "1935",
  "935",
  "Luxottica",
  "luxottica",
  "EssilorLuxottica",
  "essilorluxottica",
  "XxxxxXxxxx",
  "produttrice",
  "venditrice",
  "occhiali",
  "lenti",
  "conta",
  "dipendenti",
  "9.000",
  "d.ddd",
  "coofondatore",
  "Brian",
  "brian",
  "ian",
  "Acton",
  "acton",
  "messaggistica",
  "acquistata",
  "alcuni",
  "uni",
  "analisti",
  "fiscali",
  "esaminato",
  "caso",
  "aso",
  "utilizzerebbe",
  "stratagemma",
  "mma",
  "spostare",
  "realizzati",
  "dalle",
  "sue",
  "varie",
  "filiali",
  "nazione",
  "origine",
  "proventi",
  "sarebbero",
  "spostati",
  "Principato",
  "principato",
  "Monaco",
  "monaco",
  "aco",
  "Stato",
  "situata",
  "non",
  "esistono",
  "imposte",
  "reddito"
]